\relax 
\providecommand\hyper@newdestlabel[2]{}
\@writefile{toc}{\contentsline {section}{03月26日}{55}{section*.78}\protected@file@percent }
\newlabel{fig:cover/2024_03_26.jpg}{{\caption@xref {fig:cover/2024_03_26.jpg}{ on input line 9}}{55}{03月26日}{figure.caption.79}{}}
\@writefile{toc}{\contentsline {subsection}{{\color  {violet}\faPreselectedIcon {quote-left}}\hskip 1em\relax \large  \bfseries  DailyQuote}{55}{subsection*.80}\protected@file@percent }
\@writefile{toc}{\contentsline {subsection}{{\color  {violet}\faPreselectedIcon {feather}}\hskip 1em\relax \large  \bfseries  Poems Of the Day}{55}{subsection*.81}\protected@file@percent }
\@writefile{toc}{\contentsline {subsection}{{\color  {violet}\faPreselectedIcon {book-reader}}\hskip 1em\relax \large  \bfseries  Beauty of Words }{55}{subsection*.82}\protected@file@percent }
\@setckpt{2024_03_26}{
\setcounter{page}{57}
\setcounter{equation}{0}
\setcounter{enumi}{0}
\setcounter{enumii}{0}
\setcounter{enumiii}{0}
\setcounter{enumiv}{0}
\setcounter{footnote}{1}
\setcounter{mpfootnote}{0}
\setcounter{part}{0}
\setcounter{section}{0}
\setcounter{subsection}{0}
\setcounter{subsubsection}{0}
\setcounter{paragraph}{0}
\setcounter{subparagraph}{0}
\setcounter{figure}{0}
\setcounter{table}{0}
\setcounter{caption@flags}{0}
\setcounter{continuedfloat}{0}
\setcounter{section@level}{0}
\setcounter{Item}{0}
\setcounter{Hfootnote}{1}
\setcounter{Hy@AnnotLevel}{0}
\setcounter{bookmark@seq@number}{64}
}
