\relax 
\providecommand\hyper@newdestlabel[2]{}
\@writefile{toc}{\contentsline {section}{04月05日}{10}{section*.13}\protected@file@percent }
\newlabel{fig:cover/2024_04_04.jpg}{{\caption@xref {fig:cover/2024_04_04.jpg}{ on input line 8}}{10}{04月05日}{figure.caption.14}{}}
\@writefile{toc}{\contentsline {subsection}{{\color  {violet}\faPreselectedIcon {quote-left}}\hskip 1em\relax \large  \bfseries  DailyQuote}{10}{subsection*.15}\protected@file@percent }
\@writefile{toc}{\contentsline {subsection}{{\color  {violet}\faPreselectedIcon {feather}}\hskip 1em\relax \large  \bfseries  清明特别诗选}{10}{subsection*.16}\protected@file@percent }
\@writefile{toc}{\contentsline {subsubsection}{{\color  {violet}\faPreselectedIcon {feather}}\hskip 1em\relax \large  \bfseries  江城子·十年生死}{10}{subsubsection*.17}\protected@file@percent }
\@writefile{toc}{\contentsline {subsubsection}{{\color  {violet}\faPreselectedIcon {feather}}\hskip 1em\relax \large  \bfseries  离思五首·其四}{11}{subsubsection*.18}\protected@file@percent }
\@writefile{toc}{\contentsline {subsubsection}{{\color  {violet}\faPreselectedIcon {feather}}\hskip 1em\relax \large  \bfseries  沈园二首}{11}{subsubsection*.19}\protected@file@percent }
\@writefile{toc}{\contentsline {subsubsection}{{\color  {violet}\faPreselectedIcon {feather}}\hskip 1em\relax \large  \bfseries  浣溪沙•谁念西风独自凉}{11}{subsubsection*.20}\protected@file@percent }
\@writefile{toc}{\contentsline {subsection}{{\color  {violet}\faPreselectedIcon {book-reader}}\hskip 1em\relax \large  \bfseries  Charles Dickens to His Wife}{11}{subsection*.21}\protected@file@percent }
\@setckpt{2024_04_04}{
\setcounter{page}{13}
\setcounter{equation}{0}
\setcounter{enumi}{0}
\setcounter{enumii}{0}
\setcounter{enumiii}{0}
\setcounter{enumiv}{0}
\setcounter{footnote}{1}
\setcounter{mpfootnote}{0}
\setcounter{part}{0}
\setcounter{section}{0}
\setcounter{subsection}{0}
\setcounter{subsubsection}{0}
\setcounter{paragraph}{0}
\setcounter{subparagraph}{0}
\setcounter{figure}{0}
\setcounter{table}{0}
\setcounter{caption@flags}{0}
\setcounter{continuedfloat}{0}
\setcounter{section@level}{0}
\setcounter{Item}{0}
\setcounter{Hfootnote}{1}
\setcounter{Hy@AnnotLevel}{0}
\setcounter{bookmark@seq@number}{16}
}
