\relax 
\providecommand\hyper@newdestlabel[2]{}
\@writefile{toc}{\contentsline {section}{04月03日}{6}{section*.8}\protected@file@percent }
\newlabel{fig:cover/2024_04_02.jpg}{{\caption@xref {fig:cover/2024_04_02.jpg}{ on input line 7}}{6}{04月03日}{figure.caption.9}{}}
\@writefile{toc}{\contentsline {subsection}{{\color  {violet}\faPreselectedIcon {quote-left}}\hskip 1em\relax \large  \bfseries  DailyQuote}{6}{subsection*.10}\protected@file@percent }
\@writefile{toc}{\contentsline {subsection}{{\color  {violet}\faPreselectedIcon {feather}}\hskip 1em\relax \large  \bfseries  送别}{6}{subsection*.11}\protected@file@percent }
\@writefile{toc}{\contentsline {subsection}{{\color  {violet}\faPreselectedIcon {book-reader}}\hskip 1em\relax \large  \bfseries  The Sensible Thing （II）}{6}{subsection*.12}\protected@file@percent }
\@setckpt{2024_04_02}{
\setcounter{page}{10}
\setcounter{equation}{0}
\setcounter{enumi}{0}
\setcounter{enumii}{0}
\setcounter{enumiii}{0}
\setcounter{enumiv}{0}
\setcounter{footnote}{1}
\setcounter{mpfootnote}{0}
\setcounter{part}{0}
\setcounter{section}{0}
\setcounter{subsection}{0}
\setcounter{subsubsection}{0}
\setcounter{paragraph}{0}
\setcounter{subparagraph}{0}
\setcounter{figure}{0}
\setcounter{table}{0}
\setcounter{caption@flags}{0}
\setcounter{continuedfloat}{0}
\setcounter{section@level}{0}
\setcounter{Item}{0}
\setcounter{Hfootnote}{1}
\setcounter{Hy@AnnotLevel}{0}
\setcounter{bookmark@seq@number}{8}
}
