\relax 
\providecommand\hyper@newdestlabel[2]{}
\@writefile{toc}{\contentsline {section}{03月30日}{59}{section*.88}\protected@file@percent }
\newlabel{fig:cover/2024_03_30.jpg}{{\caption@xref {fig:cover/2024_03_30.jpg}{ on input line 9}}{59}{03月30日}{figure.caption.89}{}}
\@writefile{toc}{\contentsline {subsection}{{\color  {violet}\faPreselectedIcon {quote-left}}\hskip 1em\relax \large  \bfseries  DailyQuote}{59}{subsection*.90}\protected@file@percent }
\@writefile{toc}{\contentsline {subsection}{{\color  {violet}\faPreselectedIcon {feather}}\hskip 1em\relax \large  \bfseries  Poems Of the Day}{59}{subsection*.91}\protected@file@percent }
\@writefile{toc}{\contentsline {subsection}{{\color  {violet}\faPreselectedIcon {book-reader}}\hskip 1em\relax \large  \bfseries  Beauty of Words }{60}{subsection*.92}\protected@file@percent }
\@setckpt{2024_03_30}{
\setcounter{page}{62}
\setcounter{equation}{0}
\setcounter{enumi}{0}
\setcounter{enumii}{0}
\setcounter{enumiii}{0}
\setcounter{enumiv}{0}
\setcounter{footnote}{1}
\setcounter{mpfootnote}{0}
\setcounter{part}{0}
\setcounter{section}{0}
\setcounter{subsection}{0}
\setcounter{subsubsection}{0}
\setcounter{paragraph}{0}
\setcounter{subparagraph}{0}
\setcounter{figure}{0}
\setcounter{table}{0}
\setcounter{caption@flags}{0}
\setcounter{continuedfloat}{0}
\setcounter{section@level}{0}
\setcounter{Item}{0}
\setcounter{Hfootnote}{1}
\setcounter{Hy@AnnotLevel}{0}
\setcounter{bookmark@seq@number}{72}
}
