\relax 
\providecommand\hyper@newdestlabel[2]{}
\@writefile{toc}{\contentsline {section}{03月14日}{36}{section*.48}\protected@file@percent }
\newlabel{fig:cover/2024_03_14.jpg}{{\caption@xref {fig:cover/2024_03_14.jpg}{ on input line 7}}{36}{03月14日}{figure.caption.49}{}}
\@writefile{toc}{\contentsline {subsection}{{\color  {violet}\faPreselectedIcon {quote-left}}\hskip 1em\relax \large  \bfseries  DailyQuote}{36}{subsection*.50}\protected@file@percent }
\@writefile{toc}{\contentsline {subsection}{{\color  {violet}\faPreselectedIcon {feather}}\hskip 1em\relax \large  \bfseries  Poems Of the Day}{36}{subsection*.51}\protected@file@percent }
\@writefile{toc}{\contentsline {subsection}{{\color  {violet}\faPreselectedIcon {book-reader}}\hskip 1em\relax \large  \bfseries  Beauty of Words }{36}{subsection*.52}\protected@file@percent }
\@setckpt{2024_03_14}{
\setcounter{page}{40}
\setcounter{equation}{0}
\setcounter{enumi}{0}
\setcounter{enumii}{0}
\setcounter{enumiii}{0}
\setcounter{enumiv}{0}
\setcounter{footnote}{1}
\setcounter{mpfootnote}{0}
\setcounter{part}{0}
\setcounter{section}{0}
\setcounter{subsection}{0}
\setcounter{subsubsection}{0}
\setcounter{paragraph}{0}
\setcounter{subparagraph}{0}
\setcounter{figure}{0}
\setcounter{table}{0}
\setcounter{caption@flags}{0}
\setcounter{continuedfloat}{0}
\setcounter{section@level}{0}
\setcounter{Item}{0}
\setcounter{Hfootnote}{1}
\setcounter{Hy@AnnotLevel}{0}
\setcounter{bookmark@seq@number}{40}
}
