\contentsline {section}{04月01日}{2}{section*.3}%
\contentsline {subsection}{{\color {violet}\faPreselectedIcon {quote-left}}\hskip 1em\relax \large \bfseries DailyQuote}{2}{subsection*.5}%
\contentsline {subsection}{{\color {violet}\faPreselectedIcon {feather}}\hskip 1em\relax \large \bfseries 旅途中（On the journey）}{2}{subsection*.6}%
\contentsline {subsection}{{\color {violet}\faPreselectedIcon {book-reader}}\hskip 1em\relax \large \bfseries The Sensible Thing （I） }{3}{subsection*.7}%
\contentsline {section}{04月03日}{6}{section*.8}%
\contentsline {subsection}{{\color {violet}\faPreselectedIcon {quote-left}}\hskip 1em\relax \large \bfseries DailyQuote}{6}{subsection*.10}%
\contentsline {subsection}{{\color {violet}\faPreselectedIcon {feather}}\hskip 1em\relax \large \bfseries 送别}{6}{subsection*.11}%
\contentsline {subsection}{{\color {violet}\faPreselectedIcon {book-reader}}\hskip 1em\relax \large \bfseries The Sensible Thing （II）}{6}{subsection*.12}%
\contentsline {section}{04月05日}{10}{section*.13}%
\contentsline {subsection}{{\color {violet}\faPreselectedIcon {quote-left}}\hskip 1em\relax \large \bfseries DailyQuote}{10}{subsection*.15}%
\contentsline {subsection}{{\color {violet}\faPreselectedIcon {feather}}\hskip 1em\relax \large \bfseries 清明特别诗选}{10}{subsection*.16}%
\contentsline {subsubsection}{{\color {violet}\faPreselectedIcon {feather}}\hskip 1em\relax \large \bfseries 江城子·十年生死}{10}{subsubsection*.17}%
\contentsline {subsubsection}{{\color {violet}\faPreselectedIcon {feather}}\hskip 1em\relax \large \bfseries 离思五首·其四}{11}{subsubsection*.18}%
\contentsline {subsubsection}{{\color {violet}\faPreselectedIcon {feather}}\hskip 1em\relax \large \bfseries 沈园二首}{11}{subsubsection*.19}%
\contentsline {subsubsection}{{\color {violet}\faPreselectedIcon {feather}}\hskip 1em\relax \large \bfseries 浣溪沙•谁念西风独自凉}{11}{subsubsection*.20}%
\contentsline {subsection}{{\color {violet}\faPreselectedIcon {book-reader}}\hskip 1em\relax \large \bfseries Charles Dickens to His Wife}{11}{subsection*.21}%
