\relax 
\providecommand\pbs@newkey[2]{}
\providecommand\pbs@seq@push@cx[2]{}
\providecommand\mix@newkey[2]{}
\providecommand\hyper@newdestlabel[2]{}
\providecommand*\HyPL@Entry[1]{}
\HyPL@Entry{0<</S/D>>}
\providecommand*\caption@xref[2]{\@setref\relax\@undefined{#1}}
\newlabel{fig:more2read}{{\caption@xref {fig:more2read}{ on input line 141}}{1}{}{figure.caption.1}{}}
\HyPL@Entry{1<</S/D>>}
\@input{2024_03_31.aux}
\@input{2024_04_02.aux}
\@input{2024_04_04.aux}
\@input{Before.aux}
\gdef \@abspage@last{13}
